com/example/test/entity/Views$Full.class
com/example/test/entity/Response.class
com/example/test/entity/Student.class
com/example/test/controller/StudentController.class
com/example/test/config/WebConfig$1.class
com/example/test/service/impl/StudentServiceImpl.class
com/example/test/entity/User.class
com/example/test/dto/UserDto.class
com/example/test/entity/AbstractEntity.class
com/example/test/entity/Views$SummaryDeep.class
com/example/test/entity/Views$List.class
com/example/test/entity/Views.class
com/example/test/service/UserService.class
com/example/test/entity/Views$Detailed.class
com/example/test/service/impl/UserDetailService.class
com/example/test/config/JwtFilter.class
com/example/test/service/impl/UserServiceImpl.class
com/example/test/entity/Views$Thin.class
com/example/test/controller/UserController.class
com/example/test/config/WebSecurityConfig.class
com/example/test/entity/EntityStatus.class
com/example/test/ServletInitializer.class
com/example/test/dto/StudentEditDto.class
com/example/test/dto/StudentDto.class
com/example/test/repository/StudentRepository.class
com/example/test/repository/UserRepository.class
com/example/test/entity/Views$Summary.class
com/example/test/dto/LoginDto.class
com/example/test/entity/Views$SummaryPlus.class
com/example/test/config/JwtUtil.class
com/example/test/service/StudentService.class
com/example/test/TestApplication.class
com/example/test/config/Scheduler.class
com/example/test/config/WebConfig.class
com/example/test/entity/SystemConstant.class
