/Users/macbook/Documents/Projects/test/src/main/java/com/example/test/repository/StudentRepository.java
/Users/macbook/Documents/Projects/test/src/main/java/com/example/test/entity/Student.java
/Users/macbook/Documents/Projects/test/src/main/java/com/example/test/dto/LoginDto.java
/Users/macbook/Documents/Projects/test/src/main/java/com/example/test/service/impl/StudentServiceImpl.java
/Users/macbook/Documents/Projects/test/src/main/java/com/example/test/entity/Views.java
/Users/macbook/Documents/Projects/test/src/main/java/com/example/test/ServletInitializer.java
/Users/macbook/Documents/Projects/test/src/main/java/com/example/test/dto/UserDto.java
/Users/macbook/Documents/Projects/test/src/main/java/com/example/test/config/WebSecurityConfig.java
/Users/macbook/Documents/Projects/test/src/main/java/com/example/test/controller/UserController.java
/Users/macbook/Documents/Projects/test/src/main/java/com/example/test/entity/AbstractEntity.java
/Users/macbook/Documents/Projects/test/src/main/java/com/example/test/entity/EntityStatus.java
/Users/macbook/Documents/Projects/test/src/main/java/com/example/test/service/impl/UserServiceImpl.java
/Users/macbook/Documents/Projects/test/src/main/java/com/example/test/service/StudentService.java
/Users/macbook/Documents/Projects/test/src/main/java/com/example/test/dto/StudentEditDto.java
/Users/macbook/Documents/Projects/test/src/main/java/com/example/test/service/UserService.java
/Users/macbook/Documents/Projects/test/src/main/java/com/example/test/config/JwtUtil.java
/Users/macbook/Documents/Projects/test/src/main/java/com/example/test/entity/SystemConstant.java
/Users/macbook/Documents/Projects/test/src/main/java/com/example/test/service/impl/UserDetailService.java
/Users/macbook/Documents/Projects/test/src/main/java/com/example/test/repository/UserRepository.java
/Users/macbook/Documents/Projects/test/src/main/java/com/example/test/config/WebConfig.java
/Users/macbook/Documents/Projects/test/src/main/java/com/example/test/TestApplication.java
/Users/macbook/Documents/Projects/test/src/main/java/com/example/test/entity/Response.java
/Users/macbook/Documents/Projects/test/src/main/java/com/example/test/controller/StudentController.java
/Users/macbook/Documents/Projects/test/src/main/java/com/example/test/dto/StudentDto.java
/Users/macbook/Documents/Projects/test/src/main/java/com/example/test/config/Scheduler.java
/Users/macbook/Documents/Projects/test/src/main/java/com/example/test/entity/User.java
/Users/macbook/Documents/Projects/test/src/main/java/com/example/test/config/JwtFilter.java
